ℹ Installing fakemake in temporary library
ℹ Building vignettes for fakemake
--- re-building ‘An_Introduction_to_fakemake.Rasciidoc’ using rasciidoc
Warning in run_knit(file_name, knit = knit, envir = envir, write_to_disk = write_to_disk) :
  Setting option knit to TRUE based on the file contents!


processing file: /home/qwer/git/cyclops/fvafrcu/fakemake/vignettes/An_Introduction_to_fakemake.Rasciidoc
1/49                   
2/49 [unnamed-chunk-1] 
3/49                   
4/49 [unnamed-chunk-2] 
5/49                   
6/49 [makelist-plot]   
7/49                   
8/49 [unnamed-chunk-3] 
9/49                   
10/49 [unnamed-chunk-4] 
11/49                   
12/49 [unnamed-chunk-5] 
13/49                   
14/49 [unnamed-chunk-6] 
15/49                   
16/49 [unnamed-chunk-7] 
17/49                   
18/49 [unnamed-chunk-8] 
19/49                   
20/49 [unnamed-chunk-9] 
21/49                   
22/49 [unnamed-chunk-10]
23/49                   
24/49 [unnamed-chunk-11]
25/49                   
26/49 [unnamed-chunk-12]
27/49                   
28/49 [unnamed-chunk-13]
29/49                   
30/49 [unnamed-chunk-14]
31/49                   
32/49 [unnamed-chunk-15]
33/49                   
34/49 [unnamed-chunk-16]
35/49                   
36/49 [unnamed-chunk-17]
37/49                   
38/49 [unnamed-chunk-18]
39/49                   
40/49 [unnamed-chunk-19]
41/49                   
42/49 [unnamed-chunk-20]
43/49                   
44/49 [unnamed-chunk-21]
45/49                   
46/49 [unnamed-chunk-22]
47/49                   
48/49 [unnamed-chunk-23]
49/49                   
output file: /home/qwer/git/cyclops/fvafrcu/fakemake/vignettes/An_Introduction_to_fakemake.asciidoc



processing file: An_Introduction_to_fakemake.Rasciidoc
1/49                   
2/49 [unnamed-chunk-1] 
3/49                   
4/49 [unnamed-chunk-2] 
5/49                   
6/49 [makelist-plot]   
7/49                   
8/49 [unnamed-chunk-3] 
9/49                   
10/49 [unnamed-chunk-4] 
11/49                   
12/49 [unnamed-chunk-5] 
13/49                   
14/49 [unnamed-chunk-6] 
15/49                   
16/49 [unnamed-chunk-7] 
17/49                   
18/49 [unnamed-chunk-8] 
19/49                   
20/49 [unnamed-chunk-9] 
21/49                   
22/49 [unnamed-chunk-10]
23/49                   
24/49 [unnamed-chunk-11]
25/49                   
26/49 [unnamed-chunk-12]
output file: An_Introduction_to_fakemake.R

--- finished re-building ‘An_Introduction_to_fakemake.Rasciidoc’

27/49                   
28/49 [unnamed-chunk-13]
29/49                   
30/49 [unnamed-chunk-14]
31/49                   
32/49 [unnamed-chunk-15]
33/49                   
34/49 [unnamed-chunk-16]
35/49                   
36/49 [unnamed-chunk-17]
37/49                   
38/49 [unnamed-chunk-18]
39/49                   
40/49 [unnamed-chunk-19]
41/49                   
42/49 [unnamed-chunk-20]
43/49                   
44/49 [unnamed-chunk-21]
45/49                   
46/49 [unnamed-chunk-22]
47/49                   
48/49 [unnamed-chunk-23]
49/49                   
ℹ Copying vignettes
ℹ Moving 'An_Introduction_to_fakemake.html' and 'An_Introduction_to_fakemake.R'
  to 'doc/'
ℹ Copying 'An_Introduction_to_fakemake.Rasciidoc' to 'doc/'
ℹ Building vignette index


processing file: /home/qwer/git/cyclops/fvafrcu/fakemake/vignettes/An_Introduction_to_fakemake.Rasciidoc
1/49                   
2/49 [unnamed-chunk-1] 
3/49                   
4/49 [unnamed-chunk-2] 
5/49                   
6/49 [makelist-plot]   
7/49                   
8/49 [unnamed-chunk-3] 
9/49                   
10/49 [unnamed-chunk-4] 
11/49                   
12/49 [unnamed-chunk-5] 
13/49                   
14/49 [unnamed-chunk-6] 
15/49                   
16/49 [unnamed-chunk-7] 
17/49                   
18/49 [unnamed-chunk-8] 
19/49                   
20/49 [unnamed-chunk-9] 
21/49                   
22/49 [unnamed-chunk-10]
23/49                   
24/49 [unnamed-chunk-11]
25/49                   
26/49 [unnamed-chunk-12]
27/49                   
28/49 [unnamed-chunk-13]
29/49                   
30/49 [unnamed-chunk-14]
31/49                   
32/49 [unnamed-chunk-15]
33/49                   
34/49 [unnamed-chunk-16]
35/49                   
36/49 [unnamed-chunk-17]
37/49                   
38/49 [unnamed-chunk-18]
39/49                   
40/49 [unnamed-chunk-19]
41/49                   
42/49 [unnamed-chunk-20]
43/49                   
44/49 [unnamed-chunk-21]
45/49                   
46/49 [unnamed-chunk-22]
47/49                   
48/49 [unnamed-chunk-23]
49/49                   
output file: /home/qwer/git/cyclops/fvafrcu/fakemake/inst/vignettes_code/An_Introduction_to_fakemake.R

Warning message:
In dir.create(output_dir) :
  '/home/qwer/git/cyclops/fvafrcu/fakemake/inst/vignettes_code' already exists
